26.5 "BOC"
26.5 "BOC"
12 "BOC"
12 "BOC"
12 "BOC"
18 "BOC"
16 "BOC"
16 "BOC"
10 "BOC"
9 "BOC"
7 "BOC"
8 "BOC"
26.5 "BOC"
16 "BOC"
14 "BOC"
5.5 "BOC"
5.5 "BOC"
26.5 "BOC"
26.5 "BOC"
26.5 "BOC"
26.5 "BOC"
26.5 "BOC"
2 "BOC"
1 "BOC"
3.5 "BOC"
3.5 "BOC"
26.5 "BOC"
26.5 "BOC"
26.5 "BOC"
26.5 "BOC"
26.5 "BOC"
26.5 "BOC"
26.5 "BOC"
26.5 "BOC"
19.5 "r411"
19.5 "r411"
14.5 "r411"
14.5 "r411"
9.5 "r411"
16.5 "r411"
9.5 "r411"
12.5 "r411"
6 "r411"
5 "r411"
7.5 "r411"
7.5 "r411"
27.5 "r411"
18 "r411"
16.5 "r411"
12.5 "r411"
11 "r411"
27.5 "r411"
27.5 "r411"
27.5 "r411"
27.5 "r411"
27.5 "r411"
4 "r411"
2 "r411"
2 "r411"
2 "r411"
27.5 "r411"
27.5 "r411"
27.5 "r411"
27.5 "r411"
27.5 "r411"
27.5 "r411"
27.5 "r411"
27.5 "r411"
26.5 "r413"
15.5 "r413"
26.5 "r413"
26.5 "r413"
5 "r413"
6 "r413"
8 "r413"
8 "r413"
13.5 "r413"
13.5 "r413"
11 "r413"
8 "r413"
18 "r413"
17 "r413"
15.5 "r413"
11 "r413"
11 "r413"
26.5 "r413"
26.5 "r413"
26.5 "r413"
26.5 "r413"
26.5 "r413"
4 "r413"
3 "r413"
1 "r413"
2 "r413"
26.5 "r413"
26.5 "r413"
26.5 "r413"
26.5 "r413"
26.5 "r413"
26.5 "r413"
26.5 "r413"
26.5 "r413"
25.5 "r415"
25.5 "r415"
25.5 "r415"
25.5 "r415"
15 "r415"
16 "r415"
25.5 "r415"
25.5 "r415"
4.5 "r415"
6 "r415"
2 "r415"
2 "r415"
25.5 "r415"
25.5 "r415"
25.5 "r415"
13.5 "r415"
13.5 "r415"
25.5 "r415"
25.5 "r415"
25.5 "r415"
25.5 "r415"
25.5 "r415"
8 "r415"
7 "r415"
2 "r415"
4.5 "r415"
25.5 "r415"
25.5 "r415"
25.5 "r415"
25.5 "r415"
9.5 "r415"
9.5 "r415"
11 "r415"
12 "r415"
26 "r417"
26 "r417"
26 "r417"
26 "r417"
26 "r417"
26 "r417"
26 "r417"
13.5 "r417"
7.5 "r417"
7.5 "r417"
4 "r417"
4 "r417"
26 "r417"
26 "r417"
26 "r417"
13.5 "r417"
26 "r417"
26 "r417"
26 "r417"
26 "r417"
26 "r417"
15 "r417"
6 "r417"
4 "r417"
1.5 "r417"
1.5 "r417"
16.5 "r417"
16.5 "r417"
26 "r417"
26 "r417"
9.5 "r417"
9.5 "r417"
11 "r417"
12 "r417"
27 "r419"
27 "r419"
27 "r419"
27 "r419"
18.5 "r419"
27 "r419"
27 "r419"
27 "r419"
3 "r419"
2 "r419"
1 "r419"
9 "r419"
27 "r419"
27 "r419"
27 "r419"
11.5 "r419"
14 "r419"
27 "r419"
18.5 "r419"
27 "r419"
27 "r419"
27 "r419"
27 "r419"
6 "r419"
4.5 "r419"
4.5 "r419"
7.5 "r419"
7.5 "r419"
10 "r419"
14 "r419"
16.5 "r419"
16.5 "r419"
11.5 "r419"
14 "r419"
26.5 "EOC"
26.5 "EOC"
26.5 "EOC"
26.5 "EOC"
18 "EOC"
26.5 "EOC"
26.5 "EOC"
26.5 "EOC"
3 "EOC"
4 "EOC"
1 "EOC"
2 "EOC"
26.5 "EOC"
26.5 "EOC"
26.5 "EOC"
26.5 "EOC"
17 "EOC"
14 "EOC"
16 "EOC"
14 "EOC"
14 "EOC"
26.5 "EOC"
7.5 "EOC"
10 "EOC"
5.5 "EOC"
5.5 "EOC"
7.5 "EOC"
9 "EOC"
11.5 "EOC"
11.5 "EOC"
26.5 "EOC"
26.5 "EOC"
26.5 "EOC"
26.5 "EOC"
