SSID: eduroam
BSSID: dc:a5:f4:8d:1e:b0
Frequency: 2412
Signal: -73dBm 
Supported capabilities: [WPA2-EAP-CCMP][ESS]
-----------
SSID: eduroam
BSSID: dc:a5:f4:8d:1e:bf
Frequency: 5240
Signal: -72dBm 
Supported capabilities: [WPA2-EAP-CCMP][ESS]
-----------
SSID: eduroam
BSSID: 64:ae:0c:bf:15:af
Frequency: 5200
Signal: -60dBm 
Supported capabilities: [WPA2-EAP-CCMP][ESS]
-----------
SSID: eduroam
BSSID: 64:ae:0c:bf:15:a0
Frequency: 2437
Signal: -69dBm 
Supported capabilities: [WPA2-EAP-CCMP][ESS]
-----------
SSID: 424Space
BSSID: 4c:5e:0c:c6:75:7f
Frequency: 2412
Signal: -66dBm 
Supported capabilities: [WPA2-PSK-CCMP][ESS]
-----------
SSID: ut-public
BSSID: dc:a5:f4:8d:1e:b1
Frequency: 2412
Signal: -75dBm 
Supported capabilities: [ESS]
-----------
SSID: ut-public
BSSID: dc:a5:f4:8d:1e:be
Frequency: 5240
Signal: -72dBm 
Supported capabilities: [ESS]
-----------
SSID: ut-public
BSSID: 64:ae:0c:bf:15:ae
Frequency: 5200
Signal: -57dBm 
Supported capabilities: [ESS]
-----------
SSID: ut-public
BSSID: 64:ae:0c:bf:15:a1
Frequency: 2437
Signal: -70dBm 
Supported capabilities: [ESS]
-----------
SSID: eduroam
BSSID: dc:a5:f4:8d:2b:20
Frequency: 2412
Signal: -73dBm 
Supported capabilities: [WPA2-EAP-CCMP][ESS]
-----------
SSID: ut-public
BSSID: dc:a5:f4:8d:2b:21
Frequency: 2412
Signal: -74dBm 
Supported capabilities: [ESS]
-----------
SSID: eduroam
BSSID: 64:ae:0c:c4:c1:8f
Frequency: 5220
Signal: -85dBm 
Supported capabilities: [WPA2-EAP-CCMP][ESS]
-----------
SSID: eduroam
BSSID: 64:ae:0c:bf:0a:20
Frequency: 2462
Signal: -87dBm 
Supported capabilities: [WPA2-EAP-CCMP][ESS]
-----------
SSID: eduroam
BSSID: dc:a5:f4:8d:2b:2f
Frequency: 5180
Signal: -78dBm 
Supported capabilities: [WPA2-EAP-CCMP][ESS]
-----------
SSID: ut-public
BSSID: dc:a5:f4:8d:2b:2e
Frequency: 5180
Signal: -78dBm 
Supported capabilities: [ESS]
-----------
SSID: eduroam
BSSID: 88:75:56:a1:63:1f
Frequency: 5220
Signal: -83dBm 
Supported capabilities: [WPA2-EAP-CCMP][ESS]
-----------
SSID: ut-public
BSSID: 88:75:56:a1:63:1e
Frequency: 5220
Signal: -83dBm 
Supported capabilities: [ESS]
-----------
SSID: eduroam
BSSID: 88:75:56:a1:63:10
Frequency: 2462
Signal: -83dBm 
Supported capabilities: [WPA2-EAP-CCMP][ESS]
-----------
SSID: ut-public
BSSID: 88:75:56:a1:63:11
Frequency: 2462
Signal: -84dBm 
Supported capabilities: [ESS]
-----------